[gd_scene load_steps=3 format=2]

[ext_resource path="res://CargoRoom.gd" type="Script" id=1]

[sub_resource type="RectangleShape2D" id=1]
extents = Vector2( 223.029, 123.534 )

[node name="CargoRoom" type="Area2D"]
script = ExtResource( 1 )

[node name="CollisionShape2D" type="CollisionShape2D" parent="."]
shape = SubResource( 1 )

[node name="ActionTimer" type="Timer" parent="."]
[connection signal="body_entered" from="." to="." method="_on_CargoRoom_body_entered"]
[connection signal="body_exited" from="." to="." method="_on_CargoRoom_body_exited"]
[connection signal="timeout" from="ActionTimer" to="." method="_on_ActionTimer_timeout"]
